Tidybiology +DS: Session 1
…
Extract or create new objects

You can call a single part of the data frame

heart$thalach

## # A tibble: 1,025 x 1
##    thalach
##      <dbl>
##  1     168
##  2     155
##  3     125
##  4     161
##  5     106
##  6     122
##  7     140
##  8     145
##  9     144
## 10     116
## # … with 1,015 more rows
…
