Tidybiology +DS: Session 1
…
Extract or create new objects

You can call a single part of the data frame

heart$ca

## # A tibble: 1,025 x 1
##       ca
##    <dbl>
##  1     2
##  2     0
##  3     0
##  4     1
##  5     3
##  6     0
##  7     3
##  8     1
##  9     0
## 10     2
## # … with 1,015 more rows
…
